{
  "content": [
    {
      "visitors": [
        {
          "personId": -3,
          "lastName": "JOHNSON",
          "firstName": "JOHN",
          "leadVisitor": true,
          "relationship": "Brother"
        }
      ],
      "visitDetails": {
        "eventStatus": "SCH",
        "eventStatusDescription": "Scheduled (Approved)",
        "visitType": "SCON",
        "visitTypeDescription": "Social Contact",
        "leadVisitor": "JOHN JOHNSON",
        "relationship": "BRO",
        "relationshipDescription": "Brother",
        "location": "Carpentry Workshop",
        "eventOutcome": "ATT",
        "eventOutcomeDescription": "Attended"
      }
    },
    {
      "visitors": [],
      "visitDetails": {
        "visitType": "SCON",
        "visitTypeDescription": "Social Contact",
        "location": "Carpentry Workshop",
        "eventOutcome": "ATT",
        "eventOutcomeDescription": "Attended"
      }
    },
    {
      "visitors": [],
      "visitDetails": {
        "visitType": "SCON",
        "visitTypeDescription": "Social Contact",
        "location": "Visiting Room",
        "eventOutcome": "ATT",
        "eventOutcomeDescription": "Attended"
      }
    },
    {
      "visitors": [],
      "visitDetails": {
        "visitType": "OFFI",
        "visitTypeDescription": "Official Visit",
        "location": "Chapel",
        "eventOutcome": "ATT",
        "eventOutcomeDescription": "Attended"
      }
    }
  ],
  "pageable": {
    "sort": {
      "sorted": false,
      "unsorted": true,
      "empty": true
    },
    "offset": 5,
    "pageNumber": 1,
    "pageSize": 5,
    "paged": true,
    "unpaged": false
  },
  "totalPages": 2,
  "last": true,
  "totalElements": 9,
  "size": 5,
  "number": 1,
  "sort": {
    "unsorted": true,
    "sorted": false,
    "empty": true
  },
  "first": false,
  "numberOfElements": 4,
  "empty": false
}