{
  "content": [
    {
      "eventDate": "2017-09-11",
      "outcome": "ACCABS"
    },
    {
      "eventDate": "2017-09-12"
    },
    {
      "eventDate": "2017-09-13"
    }
  ],
  "pageable": {
    "sort": {
      "empty": false,
      "sorted": true,
      "unsorted": false
    },
    "offset": 0,
    "pageNumber": 0,
    "pageSize": 3,
    "paged": true,
    "unpaged": false
  },
  "last": false,
  "totalElements": 7,
  "totalPages": 3,
  "size": 3,
  "number": 0,
  "sort": {
    "empty": false,
    "sorted": true,
    "unsorted": false
  },
  "first": true,
  "numberOfElements": 3,
  "empty": false
}
