{
  "content": [
    {
      "bookingId": -2,
      "eventDate": "2021-12-08",
      "code": "WOOD",
      "description": "Woodwork",
      "activity": "Test Prog 2"
    },
    {
      "bookingId": -2,
      "eventDate": "2021-12-08",
      "code": "SUBS",
      "description": "Substance misuse course",
      "comment": "Comment 12"
    }
  ],
  "pageable": {
    "sort": {
      "empty": false,
      "sorted": true,
      "unsorted": false
    },
    "offset": 0,
    "pageNumber": 0,
    "pageSize": 2,
    "unpaged": false,
    "paged": true
  },
  "last": false,
  "totalPages": 4,
  "totalElements": 7,
  "size": 2,
  "number": 0,
  "sort": {
    "empty": false,
    "sorted": true,
    "unsorted": false
  },
  "first": true,
  "numberOfElements": 2,
  "empty": false
}
