{
  "content": [
    {
      "bookingId": -2,
      "eventDate": "2017-09-13",
      "outcome": "UNACAB",
      "code": "CC1",
      "description": "Chapel Cleaner"
    },
    {
      "bookingId": -2,
      "eventDate": "2017-09-14",
      "outcome": "ACCABS",
      "code": "WOOD",
      "description": "Woodwork"
    }
  ],
  "pageable": {
    "sort": {
      "empty": false,
      "sorted": true,
      "unsorted": false
    },
    "offset": 2,
    "pageNumber": 1,
    "pageSize": 2,
    "paged": true,
    "unpaged": false
  },
  "last": false,
  "totalElements": 7,
  "totalPages": 4,
  "size": 2,
  "number": 1,
  "sort": {
    "empty": false,
    "sorted": true,
    "unsorted": false
  },
  "first": false,
  "numberOfElements": 2,
  "empty": false
}
