{
  "content": [
    {
      "visitors": [
        {
          "attended": true,
          "personId": -8,
          "lastName": "JONES",
          "firstName": "THADDEUS",
          "leadVisitor": true
        },
        {
          "relationship": "Brother",
          "attended": true,
          "personId": -3,
          "lastName": "JOHNSON",
          "firstName": "JOHN",
          "dateOfBirth": "1956-02-28",
          "leadVisitor": true
        }
      ],
      "visitDetails": {
        "location": "Carpentry Workshop",
        "prison": "Leeds",
        "attended": true,
        "eventStatus": "SCH",
        "eventStatusDescription": "Scheduled (Approved)",
        "completionStatus": "SCH",
        "completionStatusDescription": "Scheduled",
        "visitType": "SCON",
        "visitTypeDescription": "Social Contact",
        "leadVisitor": "THADDEUS JONES",
        "startTime": "2019-06-30T10:00:00",
        "endTime": "2019-06-30T11:00:00",
        "eventOutcome": "ATT",
        "eventOutcomeDescription": "Attended"
      }
    },
    {
      "visitors": [
        {
          "attended": true,
          "personId": -8,
          "lastName": "JONES",
          "firstName": "THADDEUS",
          "leadVisitor": true
        },
        {
          "relationship": "Brother",
          "attended": true,
          "personId": -3,
          "lastName": "JOHNSON",
          "firstName": "JOHN",
          "dateOfBirth": "1956-02-28",
          "leadVisitor": true
        }
      ],
      "visitDetails": {
        "location": "Carpentry Workshop",
        "prison": "Leeds",
        "attended": true,
        "eventStatus": "SCH",
        "eventStatusDescription": "Scheduled (Approved)",
        "completionStatus": "SCH",
        "completionStatusDescription": "Scheduled",
        "visitType": "SCON",
        "visitTypeDescription": "Social Contact",
        "leadVisitor": "THADDEUS JONES",
        "startTime": "2019-06-30T10:00:00",
        "endTime": "2019-06-30T11:00:00",
        "eventOutcome": "ATT",
        "eventOutcomeDescription": "Attended"
      }
    },
    {
      "visitors": [],
      "visitDetails": {
        "location": "Carpentry Workshop",
        "prison": "Leeds",
        "attended": true,
        "eventStatus": "SCH",
        "eventStatusDescription": "Scheduled (Approved)",
        "completionStatus": "CAN",
        "visitType": "SCON",
        "visitTypeDescription": "Social Contact",
        "startTime": "2019-06-29T14:00:00",
        "endTime": "2019-06-29T15:00:00",
        "eventOutcome": "ATT",
        "eventOutcomeDescription": "Attended"
      }
    },
    {
      "visitors": [],
      "visitDetails": {
        "location": "Visiting Room",
        "prison": "Leeds",
        "attended": true,
        "eventStatus": "COMP",
        "eventStatusDescription": "Completed",
        "completionStatus": "NORM",
        "completionStatusDescription": "Normal Completion",
        "visitType": "SCON",
        "visitTypeDescription": "Social Contact",
        "startTime": "2019-06-29T01:00:00",
        "endTime": "2019-06-29T01:00:00",
        "eventOutcome": "ATT",
        "eventOutcomeDescription": "Attended",
        "searchType": "FULL",
        "searchTypeDescription": "Full Search"
      }
    }
  ],
  "pageable": {
    "sort": {
      "empty": true,
      "sorted": false,
      "unsorted": true
    },
    "offset": 5,
    "pageNumber": 1,
    "pageSize": 5,
    "paged": true,
    "unpaged": false
  },
  "last": true,
  "totalElements": 9,
  "totalPages": 2,
  "size": 5,
  "number": 1,
  "sort": {
    "empty": true,
    "sorted": false,
    "unsorted": true
  },
  "first": false,
  "numberOfElements": 4,
  "empty": false
}
